IPv6 address space allocation — iana_ipv6 • ipaddress
…
https://www.iana.org/assignments/ipv6-unicast-address-assignments

    Note

    Last updated 2020-08-18

    See also

    is_reserved()

    Examples

iana_ipv6
#> # A tibble: 47 x 3
#>           network allocation label   
#>        <ip_netwk> <fct>      <chr>   
#>  1          ::/3  Reserved   IETF    
#>  2      2001::/23 Managed    IANA    
#>  3  2001:200::/23 Managed    APNIC   
#>  4  2001:400::/23 Managed    ARIN    
#>  5  2001:600::/23 Managed    RIPE NCC
#>  6  2001:800::/22 Managed    RIPE NCC
#>  7  2001:c00::/22 Managed    APNIC   
#>  8 2001:1200::/23 Managed    LACNIC  
#>  9 2001:1400::/22 Managed    RIPE NCC
#> 10 2001:1800::/23 Managed    ARIN    
#> # … with 37 more rows
…
