IPv4 address space allocation — iana_ipv4 • ipaddress
…
    https://www.iana.org/assignments/ipv4-address-space

    Note

    Last updated 2022-12-12

    See also

    is_reserved()

    Examples

iana_ipv4
#> # A tibble: 121 × 3
#>       network allocation label             
#>    <ip_netwk> <fct>      <chr>             
#>  1  0.0.0.0/8 Reserved   Reserved          
#>  2  1.0.0.0/8 Managed    APNIC             
#>  3  2.0.0.0/8 Managed    RIPE NCC          
#>  4  3.0.0.0/8 Managed    Various registries
#>  5  4.0.0.0/8 Managed    Various registries
#>  6  5.0.0.0/8 Managed    RIPE NCC          
#>  7  6.0.0.0/8 Assigned   US DoD            
#>  8  7.0.0.0/8 Managed    Various registries
#>  9  8.0.0.0/7 Managed    Various registries
#> 10 10.0.0.0/8 Reserved   Reserved          
#> # ℹ 111 more rows
…
